{
  "image": "",
  "exit_file_name": "./launched",
  "exit_file_reset_on_start": true,
  "timeout": "30",
  "wait_text": "Please, wait... $time",
  "version_file": "https://gianangelogeminiani.me/download/version.txt",
  "package_files": [
    {
      "file": "https://gianangelogeminiani.me/download/package.zip",
      "target": "./_download"
    }
  ],
  "command_to_run": "",
  "scheduled_updates": []
}